[{
	"model": "tree.node",
	"pk": 1,
	"fields": {
		"value": "node1",
		"parent": null,
		"is_deleted": false,
		"is_created": false
	}
}, {
	"model": "tree.node",
	"pk": 2,
	"fields": {
		"value": "node2",
		"parent": 1,
		"is_deleted": false,
		"is_created": false
	}
}, {
	"model": "tree.node",
	"pk": 3,
	"fields": {
		"value": "node3",
		"parent": 1,
		"is_deleted": false,
		"is_created": false
	}
}, {
	"model": "tree.node",
	"pk": 4,
	"fields": {
		"value": "node4",
		"parent": 3,
		"is_deleted": false,
		"is_created": false
	}
}, {
	"model": "tree.node",
	"pk": 5,
	"fields": {
		"value": "node5",
		"parent": 3,
		"is_deleted": false,
		"is_created": false
	}
}, {
	"model": "tree.node",
	"pk": 6,
	"fields": {
		"value": "node6",
		"parent": 5,
		"is_deleted": false,
		"is_created": false
	}
}, {
	"model": "tree.node",
	"pk": 7,
	"fields": {
		"value": "node7",
		"parent": 6,
		"is_deleted": false,
		"is_created": false
	}
}, {
	"model": "tree.node",
	"pk": 8,
	"fields": {
		"value": "node8",
		"parent": 7,
		"is_deleted": false,
		"is_created": false
	}
}, {
	"model": "tree.node",
	"pk": 9,
	"fields": {
		"value": "node9",
		"parent": 7,
		"is_deleted": false,
		"is_created": false
	}
}, {
	"model": "tree.node",
	"pk": 10,
	"fields": {
		"value": "node10",
		"parent": 7,
		"is_deleted": false,
		"is_created": false
	}
}, {
	"model": "tree.node",
	"pk": 11,
	"fields": {
		"value": "node11",
		"parent": 5,
		"is_deleted": false,
		"is_created": false
	}
}, {
	"model": "tree.node",
	"pk": 12,
	"fields": {
		"value": "node12",
		"parent": 11,
		"is_deleted": false,
		"is_created": false
	}
}, {
	"model": "tree.node",
	"pk": 13,
	"fields": {
		"value": "node13",
		"parent": 12,
		"is_deleted": false,
		"is_created": false
	}
}, {
	"model": "tree.node",
	"pk": 14,
	"fields": {
		"value": "node14",
		"parent": 13,
		"is_deleted": false,
		"is_created": false
	}
}, {
	"model": "tree.node",
	"pk": 15,
	"fields": {
		"value": "node15",
		"parent": 14,
		"is_deleted": false,
		"is_created": false
	}
}, {
	"model": "tree.node",
	"pk": 16,
	"fields": {
		"value": "node16",
		"parent": 14,
		"is_deleted": false,
		"is_created": false
	}
}]